%YAML 1.1
%TAG !u! tag:unity3d.com,2011:
--- !u!114 &11400000
MonoBehaviour:
  m_ObjectHideFlags: 0
  m_CorrespondingSourceObject: {fileID: 0}
  m_PrefabInternal: {fileID: 0}
  m_GameObject: {fileID: 0}
  m_Enabled: 1
  m_EditorHideFlags: 0
  m_Script: {fileID: 11500000, guid: 0cd8f4257a9d7a54fbdb66334915962b, type: 3}
  m_Name: Card_I_2
  m_EditorClassIdentifier: 
  type: 0
  cardName: 
  chance: 1
  spr: {fileID: 21300000, guid: cc3fb6a3019cb0d428da12887329c043, type: 3}
  clip: {fileID: 8300000, guid: 45253791eea523049a34bf2b3d658424, type: 3}
  sLeft: "\u0441\u043B\u0430\u0432\u0430 \u0431\u043E\u0433\u0443!"
  sRight: "\u0443\u0440\u0430!"
  sStory: "\u043D\u043E \u043C\u043D\u043E\u0433\u0438\u043C \u0443\u0434\u0430\u043B\u043E\u0441\u044C
    \u0432\u044B\u0436\u0438\u0442\u044C \u0438 \u0434\u043E\u0431\u0440\u0430\u0442\u044C\u0441\u044F
    \u0434\u043E \u0431\u043B\u0438\u0436\u0430\u0439\u0448\u0435\u0433\u043E \u043E\u0441\u0442\u0440\u043E\u0432\u0430"
