%YAML 1.1
%TAG !u! tag:unity3d.com,2011:
--- !u!114 &11400000
MonoBehaviour:
  m_ObjectHideFlags: 0
  m_CorrespondingSourceObject: {fileID: 0}
  m_PrefabInternal: {fileID: 0}
  m_GameObject: {fileID: 0}
  m_Enabled: 1
  m_EditorHideFlags: 0
  m_Script: {fileID: 11500000, guid: 041016c736e87db48a1f2b30d7266c87, type: 3}
  m_Name: Card_Q_Coconut
  m_EditorClassIdentifier: 
  type: 2
  cardName: "\u041A\u043E\u043A\u043E\u0441"
  chance: 50
  spr: {fileID: 21300000, guid: 7abab8941b612494f81b28eeb35d8355, type: 3}
  sLeft: "\u0432 \u0438\u043D\u0432\u0435\u043D\u0442\u0430\u0440\u044C"
  sRight: "\u043F\u0440\u043E\u043F\u0443\u0441\u0442\u0438\u0442\u044C"
  sStory: "\u0432\u044B \u043D\u0430\u0448\u043B\u0438 \u043A\u043E\u043A\u043E\u0441\n"
  quests:
  - prop: 1
    value: 20
    turns: 1
    group: 0
  - prop: 2
    value: 20
    turns: 1
    group: 0
  bipolarEffect: 0
  strength: 0
  skill: 0
  intel: 0
  positiveEffects: []
  negativeEffects: []
  EffectName: 
