%YAML 1.1
%TAG !u! tag:unity3d.com,2011:
--- !u!1001 &100100000
Prefab:
  m_ObjectHideFlags: 1
  serializedVersion: 2
  m_Modification:
    m_TransformParent: {fileID: 0}
    m_Modifications: []
    m_RemovedComponents: []
  m_ParentPrefab: {fileID: 0}
  m_RootGameObject: {fileID: 1333197342421830}
  m_IsPrefabParent: 1
--- !u!1 &1333197342421830
GameObject:
  m_ObjectHideFlags: 0
  m_PrefabParentObject: {fileID: 0}
  m_PrefabInternal: {fileID: 100100000}
  serializedVersion: 5
  m_Component:
  - component: {fileID: 4068020089289864}
  - component: {fileID: 114015601535592876}
  m_Layer: 0
  m_Name: "\u0412\u043E\u0434\u0430"
  m_TagString: Untagged
  m_Icon: {fileID: 0}
  m_NavMeshLayer: 0
  m_StaticEditorFlags: 0
  m_IsActive: 1
--- !u!4 &4068020089289864
Transform:
  m_ObjectHideFlags: 1
  m_PrefabParentObject: {fileID: 0}
  m_PrefabInternal: {fileID: 100100000}
  m_GameObject: {fileID: 1333197342421830}
  m_LocalRotation: {x: 0, y: 0, z: 0, w: 1}
  m_LocalPosition: {x: 17.20941, y: 6.936985, z: -0.6875}
  m_LocalScale: {x: 1, y: 1, z: 1}
  m_Children: []
  m_Father: {fileID: 0}
  m_RootOrder: 0
  m_LocalEulerAnglesHint: {x: 0, y: 0, z: 0}
--- !u!114 &114015601535592876
MonoBehaviour:
  m_ObjectHideFlags: 1
  m_PrefabParentObject: {fileID: 0}
  m_PrefabInternal: {fileID: 100100000}
  m_GameObject: {fileID: 1333197342421830}
  m_Enabled: 1
  m_EditorHideFlags: 0
  m_Script: {fileID: 11500000, guid: 5a32469cc10bdaa46af3b459079c9afc, type: 3}
  m_Name: 
  m_EditorClassIdentifier: 
  Card: {fileID: 0}
  img: {fileID: 21300000, guid: 3f6d62b0ece59c74fb729d17fec14acc, type: 3}
  nameStory: "\u0432\u043E\u0434\u0430"
  energy: 0.4
  ClipsUse:
  - {fileID: 8300000, guid: d0cbc5a6f28f7ce44bcd1f1db17d6db0, type: 3}
